^D:\SCHOOL PROJECTS\C++ REPOS\JLF.DEMO2\JLF.DEMO2\DEBUG\MAIN.OBJ
D:\SCHOOL PROJECTS\C++ REPOS\JLF.DEMO2\DEBUG\JLF.DEMO2.EXE
D:\SCHOOL PROJECTS\C++ REPOS\JLF.DEMO2\JLF.DEMO2\DEBUG\JLF.DEMO2.ILK
D:\SCHOOL PROJECTS\C++ REPOS\JLF.DEMO2\DEBUG\JLF.DEMO2.PDB
